{
    "type": "MultiPolygon",
    "coordinates": [[[
                      [-3.787683,40.48145],
                      [-3.523668,40.480145],
                      [-3.582720,40.337934],
                      [-3.840898,40.371423],
                      [-3.787683,40.48145]
                      ]]]
}